\relax 
\providecommand\hyper@newdestlabel[2]{}
\providecommand\HyperFirstAtBeginDocument{\AtBeginDocument}
\HyperFirstAtBeginDocument{\ifx\hyper@anchor\@undefined
\global\let\oldcontentsline\contentsline
\gdef\contentsline#1#2#3#4{\oldcontentsline{#1}{#2}{#3}}
\global\let\oldnewlabel\newlabel
\gdef\newlabel#1#2{\newlabelxx{#1}#2}
\gdef\newlabelxx#1#2#3#4#5#6{\oldnewlabel{#1}{{#2}{#3}}}
\AtEndDocument{\ifx\hyper@anchor\@undefined
\let\contentsline\oldcontentsline
\let\newlabel\oldnewlabel
\fi}
\fi}
\global\let\hyper@last\relax 
\gdef\HyperFirstAtBeginDocument#1{#1}
\providecommand\HyField@AuxAddToFields[1]{}
\providecommand\HyField@AuxAddToCoFields[2]{}
\providecommand \oddpage@label [2]{}
\@writefile{toc}{\contentsline {section}{\numberline {1}Composition of Originality}{2}{section.1}\protected@file@percent }
\@writefile{toc}{\contentsline {section}{\numberline {2}Web Service 1}{3}{section.2}\protected@file@percent }
\@writefile{toc}{\contentsline {subsection}{\numberline {2.1}Service Design}{3}{subsection.2.1}\protected@file@percent }
\@writefile{toc}{\contentsline {subsection}{\numberline {2.2}Service Implementation}{3}{subsection.2.2}\protected@file@percent }
\@writefile{toc}{\contentsline {subsection}{\numberline {2.3}Service Invocation}{3}{subsection.2.3}\protected@file@percent }
\gdef \LT@i {\LT@entry 
    {1}{169.29013pt}\LT@entry 
    {1}{183.11652pt}}
\@writefile{toc}{\contentsline {subsection}{\numberline {2.4}Invocation through a client}{4}{subsection.2.4}\protected@file@percent }
\@writefile{toc}{\contentsline {subsection}{\numberline {2.5}Service Allocation time}{4}{subsection.2.5}\protected@file@percent }
\@writefile{toc}{\contentsline {section}{\numberline {3}Web Service 2}{5}{section.3}\protected@file@percent }
\@writefile{toc}{\contentsline {subsection}{\numberline {3.1}Service Design}{5}{subsection.3.1}\protected@file@percent }
\@writefile{toc}{\contentsline {subsection}{\numberline {3.2}Service Implementation}{6}{subsection.3.2}\protected@file@percent }
\gdef \LT@ii {\LT@entry 
    {1}{169.29013pt}\LT@entry 
    {1}{183.11652pt}}
\gdef \LT@iii {\LT@entry 
    {1}{169.29013pt}\LT@entry 
    {1}{126.21101pt}\LT@entry 
    {1}{225.79565pt}}
\@writefile{toc}{\contentsline {subsection}{\numberline {3.3}Service Invocation}{7}{subsection.3.3}\protected@file@percent }
\@writefile{toc}{\contentsline {subsection}{\numberline {3.4}Invocation Through a Client}{9}{subsection.3.4}\protected@file@percent }
\gdef \LT@iv {\LT@entry 
    {1}{169.29013pt}\LT@entry 
    {1}{183.11652pt}}
\@writefile{toc}{\contentsline {subsection}{\numberline {3.5}Service Allocation Time}{10}{subsection.3.5}\protected@file@percent }
\@writefile{toc}{\contentsline {section}{\numberline {4}Web Service 3 - External Service}{12}{section.4}\protected@file@percent }
\@writefile{toc}{\contentsline {subsection}{\numberline {4.1}Service Invocation}{12}{subsection.4.1}\protected@file@percent }
\@writefile{toc}{\contentsline {subsection}{\numberline {4.2}Invocation Through a Client}{13}{subsection.4.2}\protected@file@percent }
\gdef \LT@v {\LT@entry 
    {1}{169.29013pt}\LT@entry 
    {1}{183.11652pt}}
\@writefile{toc}{\contentsline {subsection}{\numberline {4.3}Service Allocation Time}{14}{subsection.4.3}\protected@file@percent }
\@writefile{toc}{\contentsline {section}{\numberline {5}Web service Integration}{15}{section.5}\protected@file@percent }
\@writefile{toc}{\contentsline {section}{\numberline {6}Successful Execution}{15}{section.6}\protected@file@percent }
\@writefile{toc}{\contentsline {section}{\numberline {7}Code Submission}{15}{section.7}\protected@file@percent }
\@writefile{toc}{\contentsline {section}{\numberline {8}Video Submission}{15}{section.8}\protected@file@percent }
\@writefile{toc}{\contentsline {section}{\numberline {9}Online Deployment}{15}{section.9}\protected@file@percent }
